Année,Pop
1980,24277000
1981,24593000
1982,24900000
1983,25202000
1984,25456000
1985,25702000
1986,25942000
1987,26204000
1988,26550000
1989,26895000
1990,27379000
1991,27791000
1992,28171682
1993,28519597
1994,28833410
1995,29111906
1996,29354000
1997,29671900
1998,29987200
1999,30247900
2000,30499200
2001,30769700
2002,31081900
2003,31362000
2004,31676000
2005,31995000
2006,32312000
2007,32570505
2008,32887928
2009,33245773
2010,33628571
2011,34005274
2012,34342780
2013,34750545
2014,35152370
2015,35535348
2016,35832513
2017,36264604
